[{"_id":1,"name":"Fonz","surname":"Barde","email":"fbarde0@drupal.org","gender":"Male","avatar":"https://robohash.org/minusquidemsunt.jpg?size=50x50&set=set1"},
    {"_id":2,"name":"Augustine","surname":"Dabinett","email":"adabinett1@imageshack.us","gender":"Female","avatar":"https://robohash.org/nihilullamnostrum.bmp?size=50x50&set=set1"},
    {"_id":3,"name":"Kimbell","surname":"Jensen","email":"kjensen2@instagram.com","gender":"Male","avatar":"https://robohash.org/nesciuntquodearum.bmp?size=50x50&set=set1"},
    {"_id":4,"name":"Judi","surname":"Styles","email":"jstyles3@tumblr.com","gender":"Female","avatar":"https://robohash.org/exercitationemautemreiciendis.png?size=50x50&set=set1"},
    {"_id":5,"name":"Chico","surname":"Danson","email":"cdanson4@java.com","gender":"Male","avatar":"https://robohash.org/eaadipisciest.png?size=50x50&set=set1"},
    {"_id":6,"name":"Hersh","surname":"Rableau","email":"hrableau5@pbs.org","gender":"Male","avatar":"https://robohash.org/illumaliquamrecusandae.png?size=50x50&set=set1"},
    {"_id":7,"name":"Sidoney","surname":"Armsby","email":"sarmsby6@pen.io","gender":"Female","avatar":"https://robohash.org/quasiliberonulla.png?size=50x50&set=set1"},
    {"_id":8,"name":"Kelsey","surname":"Mathew","email":"kmathew7@jugem.jp","gender":"Female","avatar":"https://robohash.org/quisquamvoluptateiste.bmp?size=50x50&set=set1"},
    {"_id":9,"name":"Artemus","surname":"Smither","email":"asmither8@myspace.com","gender":"Male","avatar":"https://robohash.org/quiaccusamusanimi.jpg?size=50x50&set=set1"},
    {"_id":10,"name":"Alden","surname":"Varley","email":"avarley9@theglobeandmail.com","gender":"Male","avatar":"https://robohash.org/quosquaeratquia.png?size=50x50&set=set1"},
    {"_id":11,"name":"Law","surname":"Shepperd","email":"lshepperda@epa.gov","gender":"Male","avatar":"https://robohash.org/quibusdamvoluptatesipsum.jpg?size=50x50&set=set1"},
    {"_id":12,"name":"Rosmunda","surname":"Hackney","email":"rhackneyb@hostgator.com","gender":"Female","avatar":"https://robohash.org/utaliquamquo.png?size=50x50&set=set1"},
    {"_id":13,"name":"Olympia","surname":"Dewsbury","email":"odewsburyc@miibeian.gov.cn","gender":"Female","avatar":"https://robohash.org/necessitatibusmolestiaeut.bmp?size=50x50&set=set1"},
    {"_id":14,"name":"Tarrance","surname":"Biernat","email":"tbiernatd@github.io","gender":"Male","avatar":"https://robohash.org/temporibusidest.png?size=50x50&set=set1"},
    {"_id":15,"name":"Ben","surname":"Julyan","email":"bjulyane@rediff.com","gender":"Male","avatar":"https://robohash.org/etrerumquam.png?size=50x50&set=set1"},
    {"_id":16,"name":"Rodina","surname":"Yegoshin","email":"ryegoshinf@acquirethisname.com","gender":"Female","avatar":"https://robohash.org/quiamagninatus.png?size=50x50&set=set1"},
    {"_id":17,"name":"Rosabelle","surname":"McGreary","email":"rmcgrearyg@ycombinator.com","gender":"Female","avatar":"https://robohash.org/utnamtempore.jpg?size=50x50&set=set1"},
    {"_id":18,"name":"Harmonie","surname":"Miroy","email":"hmiroyh@twitpic.com","gender":"Female","avatar":"https://robohash.org/dolorumeaquedolor.jpg?size=50x50&set=set1"},
    {"_id":19,"name":"Meade","surname":"Regardsoe","email":"mregardsoei@uol.com.br","gender":"Male","avatar":"https://robohash.org/fugiatfaceredicta.bmp?size=50x50&set=set1"},
    {"_id":20,"name":"Augustus","surname":"Neeves","email":"aneevesj@gravatar.com","gender":"Male","avatar":"https://robohash.org/hicremea.jpg?size=50x50&set=set1"},
    {"_id":21,"name":"Roanne","surname":"Fautly","email":"rfautlyk@gmpg.org","gender":"Female","avatar":"https://robohash.org/etnisiplaceat.bmp?size=50x50&set=set1"},
    {"_id":22,"name":"Gerik","surname":"Illingworth","email":"gillingworthl@godaddy.com","gender":"Male","avatar":"https://robohash.org/necessitatibusquoslaudantium.png?size=50x50&set=set1"},
    {"_id":23,"name":"Arden","surname":"Drewett","email":"adrewettm@quantcast.com","gender":"Female","avatar":"https://robohash.org/sintrepellenduspariatur.bmp?size=50x50&set=set1"},
    {"_id":24,"name":"Sidonnie","surname":"Emslie","email":"semslien@reddit.com","gender":"Female","avatar":"https://robohash.org/maioresautet.png?size=50x50&set=set1"},
    {"_id":25,"name":"Maxy","surname":"Vitall","email":"mvitallo@google.nl","gender":"Male","avatar":"https://robohash.org/deseruntveldelectus.bmp?size=50x50&set=set1"},
    {"_id":26,"name":"Spense","surname":"Trewman","email":"strewmanp@time.com","gender":"Male","avatar":"https://robohash.org/harumametquo.jpg?size=50x50&set=set1"},
    {"_id":27,"name":"Madalena","surname":"Wrightam","email":"mwrightamq@phoca.cz","gender":"Female","avatar":"https://robohash.org/fugaquidoloribus.png?size=50x50&set=set1"},
    {"_id":28,"name":"Aimee","surname":"Callcott","email":"acallcottr@uiuc.edu","gender":"Female","avatar":"https://robohash.org/involuptaseaque.png?size=50x50&set=set1"},
    {"_id":29,"name":"Creight","surname":"Hargrove","email":"chargroves@cloudflare.com","gender":"Male","avatar":"https://robohash.org/aperiamdignissimosnobis.jpg?size=50x50&set=set1"},
    {"_id":30,"name":"Lishe","surname":"Dionsetto","email":"ldionsettot@ucsd.edu","gender":"Female","avatar":"https://robohash.org/dictaodiodeleniti.png?size=50x50&set=set1"},
    {"_id":31,"name":"Fara","surname":"Clorley","email":"fclorleyu@google.pl","gender":"Female","avatar":"https://robohash.org/facilisaccusantiumsunt.jpg?size=50x50&set=set1"},
    {"_id":32,"name":"Danny","surname":"Knudsen","email":"dknudsenv@tinypic.com","gender":"Female","avatar":"https://robohash.org/undehicitaque.png?size=50x50&set=set1"},
    {"_id":33,"name":"Hayward","surname":"Malenfant","email":"hmalenfantw@ucla.edu","gender":"Male","avatar":"https://robohash.org/voluptatumautqui.bmp?size=50x50&set=set1"},
    {"_id":34,"name":"Carr","surname":"Rzehor","email":"crzehorx@bloglines.com","gender":"Male","avatar":"https://robohash.org/voluptatumquaeimpedit.jpg?size=50x50&set=set1"},
    {"_id":35,"name":"Daffy","surname":"Brandt","email":"dbrandty@statcounter.com","gender":"Female","avatar":"https://robohash.org/quasiutautem.png?size=50x50&set=set1"},
    {"_id":36,"name":"Aldric","surname":"Peirone","email":"apeironez@unicef.org","gender":"Male","avatar":"https://robohash.org/enimsintnobis.png?size=50x50&set=set1"},
    {"_id":37,"name":"Jackqueline","surname":"Hardaway","email":"jhardaway10@bbc.co.uk","gender":"Female","avatar":"https://robohash.org/sitquisfuga.jpg?size=50x50&set=set1"},
    {"_id":38,"name":"Darren","surname":"Yurchenko","email":"dyurchenko11@goodreads.com","gender":"Male","avatar":"https://robohash.org/utdistinctioquaerat.jpg?size=50x50&set=set1"},
    {"_id":39,"name":"Emile","surname":"Skirvane","email":"eskirvane12@independent.co.uk","gender":"Male","avatar":"https://robohash.org/abutmolestiae.jpg?size=50x50&set=set1"},
    {"_id":40,"name":"Sutherlan","surname":"Guite","email":"sguite13@alibaba.com","gender":"Male","avatar":"https://robohash.org/doloresvoluptatemest.png?size=50x50&set=set1"},
    {"_id":41,"name":"Merilyn","surname":"St. Clair","email":"mstclair7n@sciencedaily.com","gender":"Female","avatar":"https://robohash.org/magniipsamvitae.png?size=50x50&set=set1"},
    {"_id":42,"name":"Emlyn","surname":"Cochrane","email":"ecochrane7o@w3.org","gender":"Female","avatar":"https://robohash.org/voluptatemdoloresvitae.png?size=50x50&set=set1"},
    {"_id":43,"name":"Berni","surname":"Highway","email":"bhighway7p@discovery.com","gender":"Female","avatar":"https://robohash.org/autdoloresin.jpg?size=50x50&set=set1"},
    {"_id":44,"name":"Chloris","surname":"Syratt","email":"csyratt7q@nsw.gov.au","gender":"Female","avatar":"https://robohash.org/sapientedebitissed.png?size=50x50&set=set1"},
    {"_id":45,"name":"Josias","surname":"Tinham","email":"jtinham7r@sohu.com","gender":"Male","avatar":"https://robohash.org/explicaboquisvoluptatem.jpg?size=50x50&set=set1"},
    {"_id":46,"name":"Kenny","surname":"Magarrell","email":"kmagarrell7s@merriam-webster.com","gender":"Male","avatar":"https://robohash.org/etdictadolore.png?size=50x50&set=set1"},
    {"_id":47,"name":"Town","surname":"Hawkett","email":"thawkett7t@uiuc.edu","gender":"Male","avatar":"https://robohash.org/autexcepturiplaceat.png?size=50x50&set=set1"},
    {"_id":48,"name":"Carney","surname":"Ilymanov","email":"cilymanov7u@omniture.com","gender":"Male","avatar":"https://robohash.org/fugiatautat.bmp?size=50x50&set=set1"},
    {"_id":49,"name":"Alfonse","surname":"Huleatt","email":"ahuleatt7v@google.pl","gender":"Male","avatar":"https://robohash.org/quisquamaspernaturqui.png?size=50x50&set=set1"},
    {"_id":50,"name":"Lonni","surname":"Peagrim","email":"lpeagrim7w@gnu.org","gender":"Female","avatar":"https://robohash.org/quisetquaerat.jpg?size=50x50&set=set1"},
    {"_id":51,"name":"Louisette","surname":"Maddyson","email":"lmaddyson7x@youku.com","gender":"Female","avatar":"https://robohash.org/eaqueassumendaeum.jpg?size=50x50&set=set1"},
    {"_id":52,"name":"Audrey","surname":"Dodgshun","email":"adodgshun7y@mozilla.org","gender":"Female","avatar":"https://robohash.org/etperspiciatisest.jpg?size=50x50&set=set1"},
    {"_id":53,"name":"Cobbie","surname":"Roll","email":"croll7z@nasa.gov","gender":"Male","avatar":"https://robohash.org/minusquaeratea.png?size=50x50&set=set1"},
    {"_id":54,"name":"Woodrow","surname":"Sebyer","email":"wsebyer80@reference.com","gender":"Male","avatar":"https://robohash.org/idipsamvelit.bmp?size=50x50&set=set1"},
    {"_id":55,"name":"Honoria","surname":"Francescone","email":"hfrancescone81@e-recht24.de","gender":"Female","avatar":"https://robohash.org/ametquaeharum.bmp?size=50x50&set=set1"},
    {"_id":56,"name":"Gelya","surname":"Frigot","email":"gfrigot82@cocolog-nifty.com","gender":"Female","avatar":"https://robohash.org/tenetureaaccusantium.png?size=50x50&set=set1"},
    {"_id":57,"name":"Rennie","surname":"Garnsworth","email":"rgarnsworth83@washingtonpost.com","gender":"Female","avatar":"https://robohash.org/ettemporacupiditate.png?size=50x50&set=set1"},
    {"_id":58,"name":"Udell","surname":"Furnell","email":"ufurnell84@deviantart.com","gender":"Male","avatar":"https://robohash.org/iuresintipsam.bmp?size=50x50&set=set1"},
    {"_id":59,"name":"Darsey","surname":"Issac","email":"dissac85@wordpress.org","gender":"Female","avatar":"https://robohash.org/quimolestiaeet.bmp?size=50x50&set=set1"},
    {"_id":60,"name":"Elianora","surname":"Sebastian","email":"esebastian86@mediafire.com","gender":"Female","avatar":"https://robohash.org/adlaudantiumaut.jpg?size=50x50&set=set1"},
    {"_id":61,"name":"Kynthia","surname":"Fairhurst","email":"kfairhurst87@chron.com","gender":"Female","avatar":"https://robohash.org/etfugiattenetur.jpg?size=50x50&set=set1"},
    {"_id":62,"name":"Lucretia","surname":"Pearton","email":"lpearton88@google.ca","gender":"Female","avatar":"https://robohash.org/doloremqueconsequaturquam.bmp?size=50x50&set=set1"},
    {"_id":63,"name":"Wyatt","surname":"Saterweyte","email":"wsaterweyte89@marketwatch.com","gender":"Male","avatar":"https://robohash.org/animirepudiandaedistinctio.png?size=50x50&set=set1"},
    {"_id":64,"name":"Cart","surname":"Bridie","email":"cbridie8a@lycos.com","gender":"Male","avatar":"https://robohash.org/ametquobeatae.jpg?size=50x50&set=set1"},
    {"_id":65,"name":"Donnell","surname":"Stobbart","email":"dstobbart8b@mtv.com","gender":"Male","avatar":"https://robohash.org/facilisadipisciautem.jpg?size=50x50&set=set1"}]